# Blender MTL File: 'None'
# Material Count: 8

newmtl MG_MovieCycle_Body_MI
Ns 31.372549
Ka 0.000000 0.000000 0.000000
Kd 0.000000 0.000000 0.000000
Ks 1.000000 1.000000 1.000000
Ke 0.000000 0.000000 0.000000
Ni 1.000000
d 1.000000
illum 2
map_Kd MG_MovieCycle_BodyHeadLight_EMSS.tga
map_Bump MG_MovieCycle_Body_NORM.tga
map_Ks MG_MovieCycle_Body_SPEC.tga

newmtl MG_MovieCycle_Engine_MI
Ns 9.803922
Ka 0.000000 0.000000 0.000000
Kd 1.000000 1.000000 1.000000
Ks 0.000000 0.000000 0.000000
Ke 0.000000 0.000000 0.000000
Ni 1.000000
d 1.000000
illum 2
map_Kd MG_MovieCycle_Engine_EMSS.tga
map_Bump MG_MovieCycle_Engine_NORM.tga

newmtl MG_MovieCycle_Glass_MI
Ns 33.333333
Ka 0.000000 0.000000 0.000000
Kd 1.000000 1.000000 1.000000
Ks 0.840000 0.840000 0.840000
Ke 0.000000 0.000000 0.000000
Ni 1.000000
d 0.000000
illum 2
map_Kd Glass.tga
map_d Glass.tga

newmtl MG_MovieCycle_PlayerBaton_MI
Ns 9.803922
Ka 0.000000 0.000000 0.000000
Kd 1.000000 1.000000 1.000000
Ks 1.000000 1.000000 1.000000
Ke 0.000000 0.000000 0.000000
Ni 1.000000
d 1.000000
illum 2
map_Kd MG_Player_Baton_EMSS.tga
map_Bump MG_Player_Baton_NORM.tga
map_Ks MG_Player_Baton_SPEC.tga

newmtl MG_MovieCycle_PlayerBody_MI
Ns 9.803922
Ka 0.000000 0.000000 0.000000
Kd 1.000000 1.000000 1.000000
Ks 1.000000 1.000000 1.000000
Ke 0.000000 0.000000 0.000000
Ni 1.000000
d 1.000000
illum 2
map_Kd MG_Player_Body_EMSS.tga
map_Bump MG_Player_Body_NORM.tga
map_Ks MG_Player_Body_SPEC.tga

newmtl MG_MovieCycle_PlayerDisc_MI
Ns 9.803922
Ka 0.000000 0.000000 0.000000
Kd 1.000000 1.000000 1.000000
Ks 1.000000 1.000000 1.000000
Ke 0.000000 0.000000 0.000000
Ni 1.000000
d 1.000000
illum 2
map_Kd MG_Player_Disc_EMSS.tga
map_Bump MG_Player_Disc_NORM.tga
map_Ks MG_Player_Disc_SPEC.tga

newmtl MG_MovieCycle_PlayerHelmet_MI
Ns 5.882353
Ka 0.000000 0.000000 0.000000
Kd 1.000000 1.000000 1.000000
Ks 1.000000 1.000000 1.000000
Ke 0.000000 0.000000 0.000000
Ni 1.000000
d 1.000000
illum 2
map_Kd MG_Player_Helmet_EMSS.tga
map_Bump MG_Player_Helmet_NORM.tga
map_Ks MG_Player_Helmet_SPEC.tga

newmtl MG_MovieCycle_Tire_MI
Ns 9.803922
Ka 0.000000 0.000000 0.000000
Kd 1.000000 1.000000 1.000000
Ks 0.000000 0.000000 0.000000
Ke 0.000000 0.000000 0.000000
Ni 1.000000
d 1.000000
illum 2
map_Kd MG_MovieCycle_Tire_EMSS.tga
map_Bump MG_MovieCycle_Tire_NORM.tga
