[gd_scene load_steps=5 format=2]

[ext_resource path="res://themes/scene_texture_buttonbottomshear_hover.tres" type="StyleBox" id=1]
[ext_resource path="res://themes/scene_texture_buttonbottomshear.tres" type="StyleBox" id=2]
[ext_resource path="res://themes/buttons_font.tres" type="DynamicFont" id=3]
[ext_resource path="res://scripts/BackButtonLobby.gd" type="Script" id=4]

[node name="BackButtonLobby" type="Button"]
margin_left = -58.0
margin_top = -7.0
margin_right = 360.0
margin_bottom = 52.0
custom_styles/hover = ExtResource( 1 )
custom_styles/pressed = ExtResource( 2 )
custom_styles/focus = ExtResource( 1 )
custom_styles/normal = ExtResource( 2 )
custom_fonts/font = ExtResource( 3 )
custom_colors/font_color = Color( 0.168627, 1, 1, 1 )
custom_colors/font_color_hover = Color( 1, 1, 1, 1 )
text = "BACK"
script = ExtResource( 4 )
[connection signal="pressed" from="." to="." method="_on_BackButtonLobby_pressed"]
