[gd_scene load_steps=5 format=2]

[ext_resource path="res://materials/explosion_mat.tres" type="Material" id=1]
[ext_resource path="res://materials/explosion_mat3.tres" type="Material" id=2]
[ext_resource path="res://objects/Explosion.gd" type="Script" id=3]

[sub_resource type="QuadMesh" id=3]

material = ExtResource( 2 )
custom_aabb = AABB( 0, 0, 0, 0, 0, 0 )
size = Vector2( 1, 1 )

[node name="Explosion" type="Particles" index="0"]

transform = Transform( 1, 0, 0, 0, 1, 0, 0, 0, 1, -11.3756, 5.82335, -19.3102 )
layers = 1
material_override = null
cast_shadow = 1
extra_cull_margin = 0.0
use_in_baked_light = false
lod_min_distance = 0.0
lod_min_hysteresis = 0.0
lod_max_distance = 0.0
lod_max_hysteresis = 0.0
emitting = true
amount = 1000
lifetime = 5.0
one_shot = false
preprocess = 0.0
speed_scale = 3.0
explosiveness = 0.9
randomness = 0.0
fixed_fps = 0
fract_delta = true
visibility_aabb = AABB( -2.00001, -2.00001, -2.00001, 4.00002, 4.00002, 4.00002 )
local_coords = true
draw_order = 0
process_material = ExtResource( 1 )
draw_passes = 1
draw_pass_1 = SubResource( 3 )
script = ExtResource( 3 )
_sections_unfolded = [ "Draw Passes" ]
color = Color( 0, 1, 1, 0.5 )


