[gd_resource type="ProceduralSky" format=2]

[resource]

radiance_size = 4
sky_top_color = Color( 0, 0.0390625, 1, 1 )
sky_horizon_color = Color( 0.734998, 0.0347443, 0.988281, 1 )
sky_curve = 0.0947322
sky_energy = 1.0
ground_bottom_color = Color( 0.0078125, 0, 1, 1 )
ground_horizon_color = Color( 0.570313, 0, 1, 1 )
ground_curve = 0.5
ground_energy = 1.0
sun_color = Color( 1, 0.286865, 0.0078125, 1 )
sun_latitude = 25.0
sun_longitude = 0.0
sun_angle_min = 1.0
sun_angle_max = 100.0
sun_curve = 0.336359
sun_energy = 0.0
texture_size = 2
_sections_unfolded = [ "Ground", "Sky", "Sun" ]

