[gd_resource type="StyleBoxFlat" format=2]

[resource]
bg_color = Color( 0, 0, 0, 0.529686 )
border_width_left = 4
border_width_top = 4
border_width_right = 4
border_width_bottom = 4
border_color = Color( 0.168627, 1, 1, 1 )
corner_radius_top_left = 10
corner_radius_top_right = 10
corner_radius_bottom_right = 10
corner_radius_bottom_left = 10
