[gd_resource type="StyleBoxTexture" load_steps=3 format=2]

[sub_resource type="Gradient" id=1]
offsets = PoolRealArray( 0, 0.251908, 1 )
colors = PoolColorArray( 1, 0.0454546, 0.0454546, 1, 0.748612, 0.581717, 0.0119709, 1, 0.359375, 1, 0, 1 )

[sub_resource type="GradientTexture" id=2]
gradient = SubResource( 1 )
width = 300

[resource]
texture = SubResource( 2 )
region_rect = Rect2( 0, 0, 300, 1 )
axis_stretch_horizontal = 1
axis_stretch_vertical = 1
