[gd_resource type="StyleBoxTexture" load_steps=2 format=2]

[ext_resource path="res://assets/items/Back_Button.png" type="Texture" id=1]

[resource]

content_margin_left = -1.0
content_margin_right = -1.0
content_margin_top = -1.0
content_margin_bottom = -1.0
texture = ExtResource( 1 )
region_rect = Rect2( 0, 0, 2651, 375 )
margin_left = 0.0
margin_right = 0.0
margin_top = 0.0
margin_bottom = 0.0
expand_margin_left = 0.0
expand_margin_right = 0.0
expand_margin_top = 0.0
expand_margin_bottom = 0.0
modulate_color = Color( 1, 1, 1, 1 )
draw_center = true

