[gd_resource type="ShaderMaterial" load_steps=2 format=2]

[ext_resource path="res://scripts_shaders/ground.shader" type="Shader" id=1]

[resource]
shader = ExtResource( 1 )
shader_param/position = Vector3( 0, 0, 0 )
shader_param/groundSize = 1000.0
shader_param/gridSize = 80.0
shader_param/gridColor = Vector3( 1, 1, 1 )
shader_param/attenuation = 35.0

