[gd_resource type="ShaderMaterial" load_steps=3 format=2]

[ext_resource path="res://scripts_shaders/trail_ray.shader" type="Shader" id=1]
[ext_resource path="res://assets/textures/grayNoiseMedium.png" type="Texture" id=2]

[resource]
shader = ExtResource( 1 )
shader_param/wave_force = 10.0
shader_param/hardness = 1.0
shader_param/width = 10.0
shader_param/scaleModifier = 5.0
shader_param/speed = 0.1
shader_param/border = false
shader_param/alphaMultiplicator = 1.0
shader_param/color = Vector3( 0.7, 0.3, 0 )
shader_param/text = ExtResource( 2 )
